[
  {
    "Category": "UP FOR DEBATE",
    "ConversationStarter": "The Beatles or the Rolling Stones?"
  },
  {
    "Category": "UP FOR DEBATE",
    "ConversationStarter": "Is a hot dog a sandwich?"
  },
  {
    "Category": "UP FOR DEBATE",
    "ConversationStarter": "What’s the best way to cut a PB&J?"
  },
  {
    "Category": "UP FOR DEBATE",
    "ConversationStarter": "More PB or more J?"
  },
  {
    "Category": "UP FOR DEBATE",
    "ConversationStarter": "How do you pronounce caramel? Pecan?"
  },
  {
    "Category": "UP FOR DEBATE",
    "ConversationStarter": "Pie or cake?"
  },
  {
    "Category": "UP FOR DEBATE",
    "ConversationStarter": "Corner piece or middle piece?"
  },
  {
    "Category": "UP FOR DEBATE",
    "ConversationStarter": "Is white chocolate, chocolate?"
  },
  {
    "Category": "UP FOR DEBATE",
    "ConversationStarter": "Jelly donuts. Y/N?"
  },
  {
    "Category": "UP FOR DEBATE",
    "ConversationStarter": "Grape jelly or strawberry jelly?"
  },
  {
    "Category": "UP FOR DEBATE",
    "ConversationStarter": "Invisibility or x-ray vision?"
  },
  {
    "Category": "UP FOR DEBATE",
    "ConversationStarter": "Best song ever written?"
  },
  {
    "Category": "UP FOR DEBATE",
    "ConversationStarter": "Best book ever written?"
  },
  {
    "Category": "UP FOR DEBATE",
    "ConversationStarter": "Best movie ever made?"
  },
  {
    "Category": "UP FOR DEBATE",
    "ConversationStarter": "Best ice cream flavor?"
  },
  {
    "Category": "UP FOR DEBATE",
    "ConversationStarter": "Batman or Superman?"
  },
  {
    "Category": "UP FOR DEBATE",
    "ConversationStarter": "“Star Wars” or “Star Trek?”"
  },
  {
    "Category": "UP FOR DEBATE",
    "ConversationStarter": "Crinkle, curly or straight-cut fries?"
  },
  {
    "Category": "UP FOR DEBATE",
    "ConversationStarter": "Rain or snow?"
  },
  {
    "Category": "UP FOR DEBATE",
    "ConversationStarter": "Cookie dough or cookies?"
  },
  {
    "Category": "UP FOR DEBATE",
    "ConversationStarter": "Crunchy or creamy peanut butter?"
  },
  {
    "Category": "UP FOR DEBATE",
    "ConversationStarter": "Mayo or mustard?"
  },
  {
    "Category": "UP FOR DEBATE",
    "ConversationStarter": "Beach or mountains?"
  },
  {
    "Category": "UP FOR DEBATE",
    "ConversationStarter": "Favorite time of day?"
  },
  {
    "Category": "UP FOR DEBATE",
    "ConversationStarter": "Best show on TV right now?"
  },
  {
    "Category": "UP FOR DEBATE",
    "ConversationStarter": "Best TV show of all time?"
  },
  {
    "Category": "UP FOR DEBATE",
    "ConversationStarter": "Is the leg emoji the left leg or the right leg?"
  },
  {
    "Category": "UP FOR DEBATE",
    "ConversationStarter": "Socks with sandals? Y/N?"
  },
  {
    "Category": "TALK ABOUT IT",
    "ConversationStarter": "If you could have lunch with one person from history, who would it be?"
  },
  {
    "Category": "TALK ABOUT IT",
    "ConversationStarter": "If you could only eat one food for the rest of your life, what would it be?"
  },
  {
    "Category": "TALK ABOUT IT",
    "ConversationStarter": "If you could be one age for the rest of your life, what age would you be?"
  },
  {
    "Category": "TALK ABOUT IT",
    "ConversationStarter": "What’s your earliest memory?"
  },
  {
    "Category": "TALK ABOUT IT",
    "ConversationStarter": "If you could live anyplace on Earth, where would you live?"
  },
  {
    "Category": "TALK ABOUT IT",
    "ConversationStarter": "If you could switch places with one person for one day, who would it be?"
  },
  {
    "Category": "TALK ABOUT IT",
    "ConversationStarter": "If you could time travel, would you go to the past or future?"
  },
  {
    "Category": "TALK ABOUT IT",
    "ConversationStarter": "Make today a holiday. What’s it called?"
  },
  {
    "Category": "TALK ABOUT IT",
    "ConversationStarter": "Share the best moment of your day so far. Now share the worst."
  },
  {
    "Category": "TALK ABOUT IT",
    "ConversationStarter": "Pretend you’re in a band. What is your band name?"
  },
  {
    "Category": "TALK ABOUT IT",
    "ConversationStarter": "What is a goal you want to accomplish this year?"
  },
  {
    "Category": "TALK ABOUT IT",
    "ConversationStarter": "If you could meet someone famous, who would it be?"
  },
  {
    "Category": "TALK ABOUT IT",
    "ConversationStarter": "Describe yourself in three words."
  },
  {
    "Category": "TALK ABOUT IT",
    "ConversationStarter": "What are your plans for this weekend?"
  },
  {
    "Category": "TALK ABOUT IT",
    "ConversationStarter": "What’s your favorite day of the week? Why?"
  },
  {
    "Category": "TALK ABOUT IT",
    "ConversationStarter": "How do you like your coffee?"
  },
  {
    "Category": "TALK ABOUT IT",
    "ConversationStarter": "Who is your favorite cartoon character of all time?"
  },
  {
    "Category": "TALK ABOUT IT",
    "ConversationStarter": "Who is the best cook at the table?"
  },
  {
    "Category": "TALK ABOUT IT",
    "ConversationStarter": "If you could be interviewed by one talk-show host, who would it be?"
  },
  {
    "Category": "TALK ABOUT IT",
    "ConversationStarter": "What’s your favorite number? Why?"
  },
  {
    "Category": "TALK ABOUT IT",
    "ConversationStarter": "What age was your best, or do you think the best age is yet to come?"
  },
  {
    "Category": "TALK ABOUT IT",
    "ConversationStarter": "Think of a specific animal for a pet. What is it, and what would you name it?"
  },
  {
    "Category": "TALK ABOUT IT",
    "ConversationStarter": "Do you prefer elevators, escalators or stairs?"
  },
  {
    "Category": "TALK ABOUT IT",
    "ConversationStarter": "What TV show reminds you most of your life?"
  },
  {
    "Category": "TALK ABOUT IT",
    "ConversationStarter": "On a scale of 1-5, how toasted do you prefer your toast? (1 being light, 5 being charred)"
  },
  {
    "Category": "TALK ABOUT IT",
    "ConversationStarter": "Who are the three greatest athletes of all time?"
  },
  {
    "Category": "TALK ABOUT IT",
    "ConversationStarter": "If you opened a restaurant, what kind of food would you serve?"
  },
  {
    "Category": "TALK ABOUT IT",
    "ConversationStarter": "What was the best invention of the last 50 years?"
  },
  {
    "Category": "TALK ABOUT IT",
    "ConversationStarter": "What made you laugh today?"
  },
  {
    "Category": "TALK ABOUT IT",
    "ConversationStarter": "Who was your favorite teacher?"
  },
  {
    "Category": "TALK ABOUT IT",
    "ConversationStarter": "What was the theme of the best birthday party you’ve ever been to?"
  },
  {
    "Category": "TALK ABOUT IT",
    "ConversationStarter": "If you were an animal, what would you be? Why?"
  },
  {
    "Category": "TALK ABOUT IT",
    "ConversationStarter": "What was your favorite childhood board game? What about now?"
  },
  {
    "Category": "CAN YOU GUESS?",
    "ConversationStarter": "Guess each other’s favorite movies."
  },
  {
    "Category": "CAN YOU GUESS?",
    "ConversationStarter": "Who at the table has traveled the most?"
  },
  {
    "Category": "CAN YOU GUESS?",
    "ConversationStarter": "Who at the table has taken part in a talent show? What did you do?"
  },
  {
    "Category": "CAN YOU GUESS?",
    "ConversationStarter": "Who at the table has walked out of a movie? Which movie, and why?"
  },
  {
    "Category": "CAN YOU GUESS?",
    "ConversationStarter": "Who at the table hasn’t been stung by a bee?"
  },
  {
    "Category": "CAN YOU GUESS?",
    "ConversationStarter": "Who at the table slept the latest this morning?"
  },
  {
    "Category": "CAN YOU GUESS?",
    "ConversationStarter": "What’s your server’s favorite color?"
  },
  {
    "Category": "CAN YOU GUESS?",
    "ConversationStarter": "Without looking, how many jelly containers are there on the table?"
  },
  {
    "Category": "CAN YOU GUESS?",
    "ConversationStarter": "Who will be the last to finish eating?"
  },
  {
    "Category": "CAN YOU GUESS?",
    "ConversationStarter": "Who at the table is a night owl, and who is an early bird?"
  },
  {
    "Category": "CAN YOU GUESS?",
    "ConversationStarter": "Is anyone at the table left-handed? "
  },
  {
    "Category": "CAN YOU GUESS?",
    "ConversationStarter": "Guess each other’s favorite songs or artists."
  },
  {
    "Category": "CAN YOU GUESS?",
    "ConversationStarter": "How does each person at the table prefer biscuits? With butter, jam, honey, gravy, or all of the above?"
  },
  {
    "Category": "CAN YOU GUESS?",
    "ConversationStarter": "Name the favorite restaurant of any one person at the table. "
  },
  {
    "Category": "CAN YOU GUESS?",
    "ConversationStarter": "Guess each other’s middle names. "
  },
  {
    "Category": "CAN YOU GUESS?",
    "ConversationStarter": "Who at the table has the largest music library?"
  },
  {
    "Category": "CAN YOU GUESS?",
    "ConversationStarter": "Who at the table has been to the most concerts?"
  },
  {
    "Category": "CAN YOU GUESS?",
    "ConversationStarter": "Who at the table watches the most TV?"
  },
  {
    "Category": "CAN YOU GUESS?",
    "ConversationStarter": "Who at the table has tried sushi? "
  },
  {
    "Category": "CAN YOU GUESS?",
    "ConversationStarter": "Spell the name of everyone at the table. "
  },
  {
    "Category": "CAN YOU GUESS?",
    "ConversationStarter": "Who at the table is the tallest? Shortest? "
  },
  {
    "Category": "CAN YOU GUESS?",
    "ConversationStarter": "If dog, cat or fish were the options, which pet would each person choose? "
  },
  {
    "Category": "BE HONEST",
    "ConversationStarter": "What’s the most adventurous thing you’ve ever eaten?"
  },
  {
    "Category": "BE HONEST",
    "ConversationStarter": "Are you afraid of ghosts?"
  },
  {
    "Category": "BE HONEST",
    "ConversationStarter": "What’s your dream job?"
  },
  {
    "Category": "BE HONEST",
    "ConversationStarter": "What’s the nicest thing anyone has ever said to you?"
  },
  {
    "Category": "BE HONEST",
    "ConversationStarter": "What would you title your autobiography?"
  },
  {
    "Category": "BE HONEST",
    "ConversationStarter": "Would you skip sleep if you could?"
  },
  {
    "Category": "BE HONEST",
    "ConversationStarter": "Have you ever thrown something at the TV?"
  },
  {
    "Category": "BE HONEST",
    "ConversationStarter": "Would you rather be funny or famous?"
  },
  {
    "Category": "BE HONEST",
    "ConversationStarter": "What’s the most embarrassing thing that’s ever happened to you?"
  },
  {
    "Category": "BE HONEST",
    "ConversationStarter": "In which Hogwarts’ house would you belong?"
  },
  {
    "Category": "BE HONEST",
    "ConversationStarter": "What’s the best gift you’ve ever received?"
  },
  {
    "Category": "BE HONEST",
    "ConversationStarter": "With which villain do you most identify?"
  },
  {
    "Category": "BE HONEST",
    "ConversationStarter": "Have you ever re-gifted something?"
  },
  {
    "Category": "BE HONEST",
    "ConversationStarter": "Do you prefer watching movies at the theater or at home?"
  },
  {
    "Category": "BE HONEST",
    "ConversationStarter": "How many apps do you have on your phone? "
  },
  {
    "Category": "BE HONEST",
    "ConversationStarter": "Name a fashion trend you are glad went away. "
  },
  {
    "Category": "BE HONEST",
    "ConversationStarter": "Which season is your favorite?"
  },
  {
    "Category": "BE HONEST",
    "ConversationStarter": "What is your favorite food of all time?"
  },
  {
    "Category": "BE HONEST",
    "ConversationStarter": "If you had a personal mascot, what would your mascot be? "
  },
  {
    "Category": "BE HONEST",
    "ConversationStarter": "Name a job at which you would be terrible. "
  },
  {
    "Category": "BE HONEST",
    "ConversationStarter": "To which age do you want to live? "
  },
  {
    "Category": "BE HONEST",
    "ConversationStarter": "What’s a quote you live by?"
  },
  {
    "Category": "BE HONEST",
    "ConversationStarter": "What was your favorite vacation?"
  },
  {
    "Category": "BE HONEST",
    "ConversationStarter": "What is your dream vacation?"
  }
]